64,69,69,69,69,69,69,69,69,69,69,22,69,69,22,69,69,69,69,69,69,69,22,16,16,16,16,22,69,69,64,64
64,69,69,69,69,69,69,69,69,2,3,23,33,34,23,69,69,69,69,69,69,69,23,69,33,34,69,23,69,69,64,64
69,69,69,69,0,1,69,69,69,18,69,23,49,50,23,2,3,69,69,2,3,69,23,50,49,50,50,23,69,69,64,64
69,69,69,69,69,2,3,69,0,1,69,55,50,50,55,18,69,69,69,18,69,69,55,50,50,50,50,55,2,3,64,64
4,5,7,66,69,18,69,69,69,17,69,38,39,39,38,69,69,0,1,69,69,69,38,39,16,16,39,38,18,69,64,64
64,22,22,69,66,69,69,69,69,69,69,22,51,51,22,69,69,69,17,69,69,69,22,53,54,54,52,22,69,69,64,64
64,23,23,69,69,66,69,69,69,69,69,23,20,20,23,51,54,51,54,51,54,51,23,20,20,20,20,23,69,69,64,64
64,23,23,69,69,69,66,69,69,32,21,23,19,19,23,21,32,69,69,69,32,21,23,36,19,19,36,23,21,69,64,64
64,55,55,69,69,69,69,66,69,48,37,55,35,35,55,37,48,69,69,69,48,37,55,69,35,35,69,55,37,69,64,64
6,4,4,4,5,7,7,6,4,4,4,5,7,7,6,4,4,4,5,7,68,6,4,4,4,5,7,7,6,4,4,4
69,69,69,69,69,69,69,69,69,69,69,69,69,69,69,69,69,69,69,69,69,66,69,69,69,69,69,69,69,69,69,69
