100,100,1,1,1,1,1,1,1,1,1,1,1,1,1,1,1,1,1,1,1,1,1,1,1,1,1,1,1,1,1,1,1,1,1,1,1,1,1,1,1,1,1,1,1,1,1,1
100,100,0,7,7,0,7,2,7,0,7,7,0,7,7,0,7,7,0,7,7,0,7,2,7,0,7,7,0,7,7,0,7,7,0,7,7,0,7,7,2,7,0,7,7,0,7,7
100,100,20,20,20,20,20,3,20,20,20,20,20,20,20,20,20,20,20,20,20,20,20,3,20,20,20,20,20,20,20,20,20,20,20,20,20,20,20,20,3,20,20,20,20,20,20,20
100,100,22,21,21,21,22,4,22,22,22,21,21,21,21,21,21,21,21,21,22,22,22,4,22,22,22,21,21,21,21,21,21,21,21,21,21,22,22,22,4,22,21,21,21,21,21,22
5,6,6,6,5,6,98,6,5,6,6,6,5,6,6,6,5,6,6,6,5,6,6,6,5,6,6,6,5,6,6,6,5,6,6,6,5,6,6,6,5,6,6,6,5,6,6,6
100,7,7,7,7,96,7,2,36,37,38,18,7,18,36,37,38,18,7,18,36,37,38,2,18,36,37,38,18,7,7,18,18,7,7,18,36,37,38,18,2,7,18,7,7,18,7,100
100,7,7,7,96,7,7,3,52,53,54,19,7,19,52,53,54,19,7,19,52,53,54,3,19,52,53,54,19,7,7,19,19,7,7,19,52,53,54,19,3,7,19,7,7,19,7,100
100,20,20,96,20,20,20,3,20,20,20,20,20,20,20,20,20,20,20,20,20,20,20,3,20,20,20,20,20,20,20,20,20,20,20,20,20,20,20,20,3,20,20,20,20,20,20,100
100,7,96,7,7,7,7,4,22,22,22,21,21,21,21,21,21,21,21,21,22,22,22,4,22,22,22,21,21,21,21,21,21,21,21,21,21,22,22,22,4,7,7,7,7,7,7,100
5,6,6,6,5,6,6,6,5,6,6,6,5,6,6,6,5,6,6,6,5,6,6,6,5,6,6,6,5,6,6,6,5,6,6,6,5,6,6,6,5,6,6,6,99,6,6,6
7,7,7,7,7,7,7,7,7,7,7,7,7,7,7,7,7,7,7,7,7,7,7,7,7,7,7,7,7,7,7,7,7,7,7,7,7,7,7,7,7,7,7,7,7,97,7,7
