7,32,0,0,0,32,23,23,32,51,0,0,32,23,7,32,0,0,0,32,23,23,7,0,0,0,50,23,23,32,0,7
7,37,20,20,20,36,23,23,37,36,51,37,36,23,7,37,20,20,20,36,23,23,7,37,36,50,23,37,20,20,36,7
7,23,23,23,23,23,23,23,23,23,23,51,23,23,7,23,23,23,23,23,23,23,7,23,50,23,23,23,23,23,23,7
7,17,0,4,0,18,16,16,17,0,4,22,6,6,5,17,0,4,0,18,16,16,22,6,6,5,22,6,6,52,22,6
7,33,23,38,23,34,23,23,33,23,38,23,23,23,23,33,23,38,23,34,23,23,33,23,38,23,34,23,50,33,23,7
7,33,1,23,1,34,1,1,33,1,23,1,34,1,1,33,1,23,1,34,1,1,33,1,23,1,34,50,1,33,1,7
7,49,23,23,23,35,23,23,49,23,23,23,35,23,23,49,23,23,23,35,23,23,49,23,23,23,50,23,23,49,23,7
7,17,23,3,2,18,16,16,17,23,3,2,18,16,16,17,23,3,2,18,16,16,17,23,23,50,18,16,16,17,23,7
7,17,16,19,16,18,16,16,17,16,19,16,18,16,16,17,16,19,16,18,16,16,17,16,50,16,18,16,16,17,16,7
22,6,6,5,21,21,21,22,6,6,5,21,21,21,22,6,6,5,21,21,21,22,6,6,5,21,21,21,22,6,6,5
23,23,23,23,23,23,23,23,23,23,23,23,23,23,23,23,23,23,23,23,23,23,23,23,23,23,23,23,23,23,23,23
