7,23,23,32,0,51,0,32,23,23,32,0,0,0,32,23,23,32,0,0,0,32,23,23,32,0,0,0,32,23,23,32
7,23,23,37,20,36,51,23,23,23,37,20,20,20,36,23,23,37,20,20,20,36,23,23,37,20,20,20,36,23,23,37
7,23,23,23,23,23,23,51,23,23,23,23,23,23,23,23,23,23,23,23,23,23,23,23,23,23,23,23,23,23,23,23
7,16,16,17,0,4,0,18,51,16,17,0,4,0,18,16,16,17,0,4,0,18,16,16,17,0,4,0,18,16,16,17
7,22,6,6,5,21,21,21,21,22,6,6,5,21,21,21,21,22,6,6,5,21,21,21,21,22,53,6,5,21,21,21
7,1,1,33,1,23,1,34,1,1,33,1,23,1,34,1,1,33,1,23,1,34,1,1,33,1,23,51,34,1,1,33
35,23,23,49,23,23,23,35,23,23,49,23,23,23,35,23,23,49,23,23,23,35,23,23,49,23,23,23,51,23,23,49
18,16,16,17,23,3,2,18,16,16,17,23,3,2,18,16,16,17,23,3,2,18,16,16,17,23,3,2,18,51,16,17
18,16,16,17,16,19,16,18,16,16,17,16,19,16,18,16,16,17,16,19,16,18,16,16,17,16,19,16,18,16,51,17
22,6,6,5,21,21,21,53,22,6,6,5,23,23,23,23,23,23,23,23,23,23,23,21,22,6,6,5,52,21,21,21
23,23,23,23,23,23,23,23,51,23,23,23,23,23,23,23,23,23,23,23,23,23,23,23,23,23,23,50,23,23,23,23
